%YAML 1.1
%TAG !u! tag:unity3d.com,2011:
--- !u!687078895 &4343727234628468602
SpriteAtlas:
  m_ObjectHideFlags: 0
  m_CorrespondingSourceObject: {fileID: 0}
  m_PrefabInstance: {fileID: 0}
  m_PrefabAsset: {fileID: 0}
  m_Name: GameSceneUIAtlas
  m_EditorData:
    serializedVersion: 2
    textureSettings:
      serializedVersion: 2
      anisoLevel: 1
      compressionQuality: 50
      maxTextureSize: 2048
      textureCompression: 0
      filterMode: 1
      generateMipMaps: 0
      readable: 0
      crunchedCompression: 0
      sRGB: 1
    platformSettings: []
    packingSettings:
      serializedVersion: 2
      padding: 4
      blockOffset: 1
      allowAlphaSplitting: 0
      enableRotation: 0
      enableTightPacking: 0
    variantMultiplier: 1
    packables:
    - {fileID: 2800000, guid: abfe94be5231af24180051cceb37120b, type: 3}
    - {fileID: 2800000, guid: 2ca24aefaae9c974f847b1395ae954dc, type: 3}
    - {fileID: 2800000, guid: 6feef2f8c750b9f409f0dabdff0ef558, type: 3}
    - {fileID: 2800000, guid: 2b12004f4bcf9c64b80599f490907577, type: 3}
    - {fileID: 2800000, guid: 729fa1acfa3485e46bf498b3f8493e06, type: 3}
    - {fileID: 2800000, guid: 76bf20349d1c4b5459ea4ed44e75146d, type: 3}
    - {fileID: 2800000, guid: ba744ce7b0f39cd44a2c91a3677efb38, type: 3}
    - {fileID: 2800000, guid: 5c9d8d8c05967e0428097706c3626d5d, type: 3}
    - {fileID: 2800000, guid: 137c9cb68c22878448d5f03ba6082e9d, type: 3}
    - {fileID: 2800000, guid: 79e865062f0de3f4c8eb4b87b06b0324, type: 3}
    - {fileID: 2800000, guid: 2b992ddb3c43cf748860a5e8e302ea11, type: 3}
    - {fileID: 2800000, guid: 587821ee74801b94ea2b6c9cb4aa8cd2, type: 3}
    - {fileID: 2800000, guid: 333fd9037ec367e4184b08b81a388a30, type: 3}
    - {fileID: 2800000, guid: db7e2dc1a8334d94482fe0e0a13d9287, type: 3}
    - {fileID: 2800000, guid: 9e406253d198e3144bfc5127c13048a1, type: 3}
    - {fileID: 2800000, guid: ebc37d59529373145ab1751b45bff59b, type: 3}
    - {fileID: 2800000, guid: 754443e422813c04a8f6ead371ccbbb8, type: 3}
    - {fileID: 2800000, guid: 55d17fc97098bff49b598eb8192c3f0f, type: 3}
    - {fileID: 2800000, guid: 60fc4a9d6a7e28c4abbc8f880e3b08c0, type: 3}
    - {fileID: 2800000, guid: b33f6cd3399da0747bc23f18cfbf7963, type: 3}
    - {fileID: 2800000, guid: 520b91e5b43f7da48bea0aee1e2b3081, type: 3}
    - {fileID: 2800000, guid: c1f81b871e77a59429ac17d61b0fb6f0, type: 3}
    - {fileID: 2800000, guid: cdaffd8e886938d4c959a4ec564b52ae, type: 3}
    - {fileID: 2800000, guid: 3685eecf931e2bc4696755a8322f87f2, type: 3}
    - {fileID: 2800000, guid: 2c6465fa18c8ee0469e92c73337ea026, type: 3}
    - {fileID: 2800000, guid: 381e776ae56a05f408573f213c451fd7, type: 3}
    - {fileID: 2800000, guid: 6c58041fe9161c54da577eb622732c16, type: 3}
    - {fileID: 2800000, guid: dc2ab8e91a8619c4891cf817205eb3f8, type: 3}
    - {fileID: 2800000, guid: aa4a0cfa17781614d9a5e4119f0e597a, type: 3}
    - {fileID: 2800000, guid: b90888bc36b1f85469d0825102b37a5e, type: 3}
    - {fileID: 2800000, guid: 1421da6ecc7fa274289fd57b46c848a1, type: 3}
    - {fileID: 2800000, guid: 0bd80c84cb5dc2046a00751471050640, type: 3}
    - {fileID: 2800000, guid: 62628e02824dd1842aac2941f06089eb, type: 3}
    - {fileID: 2800000, guid: c64e13952f470e04e895ede132f476d3, type: 3}
    - {fileID: 2800000, guid: 3cd6a35d29a856a4b96daf627a953e5c, type: 3}
    - {fileID: 2800000, guid: 8572caecb046b4444867e087578362c7, type: 3}
    - {fileID: 2800000, guid: e94f5a32feb17af409227e58c56c3e10, type: 3}
    - {fileID: 2800000, guid: 6fba2cd4fc365ca4d88715378c404bc3, type: 3}
    - {fileID: 2800000, guid: 518fd39a855108841b9bc567bfa94eba, type: 3}
    - {fileID: 2800000, guid: 8275407fc327cd94ab998e38dd651ceb, type: 3}
    - {fileID: 2800000, guid: 182202969cb8515459c17e8f0692bfe0, type: 3}
    - {fileID: 2800000, guid: e4067a779647da14d9e59b3d5cce8cb7, type: 3}
    - {fileID: 2800000, guid: 9175634cb85ec4f4c9b9630f1883bdb6, type: 3}
    totalSpriteSurfaceArea: 3485512
    bindAsDefault: 1
    storedHash:
      serializedVersion: 2
      Hash: 58be4b34f4c8a467fb7e6aeef8e96fbc
  m_MasterAtlas: {fileID: 0}
  m_PackedSprites:
  - {fileID: 21300000, guid: db7e2dc1a8334d94482fe0e0a13d9287, type: 3}
  - {fileID: 21300000, guid: 62628e02824dd1842aac2941f06089eb, type: 3}
  - {fileID: 21300000, guid: e94f5a32feb17af409227e58c56c3e10, type: 3}
  - {fileID: 21300000, guid: 333fd9037ec367e4184b08b81a388a30, type: 3}
  - {fileID: 21300000, guid: 9e406253d198e3144bfc5127c13048a1, type: 3}
  - {fileID: 21300000, guid: b33f6cd3399da0747bc23f18cfbf7963, type: 3}
  - {fileID: 21300000, guid: 76bf20349d1c4b5459ea4ed44e75146d, type: 3}
  - {fileID: 21300000, guid: 0bd80c84cb5dc2046a00751471050640, type: 3}
  - {fileID: 21300000, guid: 6fba2cd4fc365ca4d88715378c404bc3, type: 3}
  - {fileID: 21300000, guid: 754443e422813c04a8f6ead371ccbbb8, type: 3}
  - {fileID: 21300000, guid: c64e13952f470e04e895ede132f476d3, type: 3}
  - {fileID: 21300000, guid: 520b91e5b43f7da48bea0aee1e2b3081, type: 3}
  - {fileID: 21300000, guid: 79e865062f0de3f4c8eb4b87b06b0324, type: 3}
  - {fileID: 21300000, guid: 182202969cb8515459c17e8f0692bfe0, type: 3}
  - {fileID: 21300000, guid: 137c9cb68c22878448d5f03ba6082e9d, type: 3}
  - {fileID: 21300000, guid: e4067a779647da14d9e59b3d5cce8cb7, type: 3}
  - {fileID: 21300000, guid: c1f81b871e77a59429ac17d61b0fb6f0, type: 3}
  - {fileID: 21300000, guid: ba744ce7b0f39cd44a2c91a3677efb38, type: 3}
  - {fileID: 21300000, guid: 6feef2f8c750b9f409f0dabdff0ef558, type: 3}
  - {fileID: 21300000, guid: ebc37d59529373145ab1751b45bff59b, type: 3}
  - {fileID: 21300000, guid: 55d17fc97098bff49b598eb8192c3f0f, type: 3}
  - {fileID: 21300000, guid: dc2ab8e91a8619c4891cf817205eb3f8, type: 3}
  - {fileID: 21300000, guid: 381e776ae56a05f408573f213c451fd7, type: 3}
  - {fileID: 21300000, guid: 518fd39a855108841b9bc567bfa94eba, type: 3}
  - {fileID: 21300000, guid: 2c6465fa18c8ee0469e92c73337ea026, type: 3}
  - {fileID: 21300000, guid: aa4a0cfa17781614d9a5e4119f0e597a, type: 3}
  - {fileID: 21300000, guid: 2b992ddb3c43cf748860a5e8e302ea11, type: 3}
  - {fileID: 21300000, guid: 9175634cb85ec4f4c9b9630f1883bdb6, type: 3}
  - {fileID: 21300000, guid: 5c9d8d8c05967e0428097706c3626d5d, type: 3}
  - {fileID: 21300000, guid: 729fa1acfa3485e46bf498b3f8493e06, type: 3}
  - {fileID: 21300000, guid: b90888bc36b1f85469d0825102b37a5e, type: 3}
  - {fileID: 21300000, guid: 8572caecb046b4444867e087578362c7, type: 3}
  - {fileID: 21300000, guid: 3cd6a35d29a856a4b96daf627a953e5c, type: 3}
  - {fileID: 21300000, guid: 60fc4a9d6a7e28c4abbc8f880e3b08c0, type: 3}
  - {fileID: 21300000, guid: 1421da6ecc7fa274289fd57b46c848a1, type: 3}
  - {fileID: 21300000, guid: cdaffd8e886938d4c959a4ec564b52ae, type: 3}
  - {fileID: 21300000, guid: abfe94be5231af24180051cceb37120b, type: 3}
  - {fileID: 21300000, guid: 587821ee74801b94ea2b6c9cb4aa8cd2, type: 3}
  - {fileID: 21300000, guid: 6c58041fe9161c54da577eb622732c16, type: 3}
  - {fileID: 21300000, guid: 2b12004f4bcf9c64b80599f490907577, type: 3}
  - {fileID: 21300000, guid: 8275407fc327cd94ab998e38dd651ceb, type: 3}
  - {fileID: 21300000, guid: 3685eecf931e2bc4696755a8322f87f2, type: 3}
  - {fileID: 21300000, guid: 2ca24aefaae9c974f847b1395ae954dc, type: 3}
  m_PackedSpriteNamesToIndex:
  - AOD_UI_GravityTracingMissile
  - AOD_UI_Panel16
  - AOD_UI_Progress2
  - AOD_UI_Gagebar
  - AOD_UI_Icon_Target
  - AOD_UI_Panel03
  - AOD_UI_BuildSetting
  - AOD_UI_Panel15
  - AOD_UI_SelectShip
  - AOD_UI_Log
  - AOD_UI_Panel17
  - AOD_UI_Panel04
  - AOD_UI_Button04
  - AOD_UI_TargetingAlert
  - AOD_UI_Button03
  - AOD_UI_Title
  - AOD_UI_Panel05
  - AOD_UI_Button01
  - AOD_UI_AbilityButton
  - AOD_UI_Location
  - AOD_UI_Panel01
  - AOD_UI_Panel11
  - AOD_UI_Panel09
  - AOD_UI_Sun
  - AOD_UI_Panel08
  - AOD_UI_Panel12
  - AOD_UI_Circle
  - AOD_UI_WeaponDamage
  - AOD_UI_Button02
  - AOD_UI_Bounty
  - AOD_UI_Panel13
  - AOD_UI_Progress
  - AOD_UI_PermanentPassive
  - AOD_UI_Panel02
  - AOD_UI_Panel14
  - AOD_UI_Panel06
  - AOD_UI_Ability_bg2
  - AOD_UI_DreadnoughtSerialChip
  - AOD_UI_Panel10
  - AOD_UI_BossPoint
  - AOD_UI_TargetIndicator
  - AOD_UI_Panel07
  - AOD_UI_Ability_bg3
  m_Tag: GameSceneUIAtlas
  m_IsVariant: 0
