%YAML 1.1
%TAG !u! tag:unity3d.com,2011:
--- !u!1045 &1
EditorBuildSettings:
  m_ObjectHideFlags: 0
  serializedVersion: 2
  m_Scenes:
  - enabled: 1
    path: Assets/Scenes/LogoScene.unity
    guid: b55369bd7d662524c9d0521e325df8e7
  - enabled: 1
    path: Assets/Scenes/0_LoadingScene.unity
    guid: 2d8c5f0cb723e554f8f55da2548d0593
  - enabled: 1
    path: Assets/Scenes/1_MenuScene.unity
    guid: 05c64330cd305654f9aef347aa5f5c59
  - enabled: 1
    path: Assets/Scenes/2_GameScene.unity
    guid: 9fc0d4010bbf28b4594072e72b8655ab
  m_configObjects: {}
